{
  "type": "service_account",
  "project_id": "tenacious-camp-180815",
  "private_key_id": "a7c73222bc6ef352c9684d88c4fe90b4142ac442",
  "private_key": "-----BEGIN PRIVATE KEY-----\nMIIEvQIBADANBgkqhkiG9w0BAQEFAASCBKcwggSjAgEAAoIBAQDFy/zHkSE0DMmB\nDVPSpd7s2hh7mOhiBpFCx02NmFWs2d6/lbyXVReigwcbDDxVV5UIEiRg2RGmFdnD\nph1TNmr5LAQG/SCkbYStTjE44na8yG7srbnKqqNe8+7N6SMuIZ3wRF3T0wZKE8D3\nrz5aAxYBm4e5zNNI7kCMvuL9TkIjoPTwOcl2Px13mUn4koxTVKRruXah83Q4Y+UV\n3qgwMRYgb97JaM2eS688TxkBVlUhBQ1be8nLK6jefCNVJBvpqT7dmVXilCwAZM9T\nFFS5VYT3RB01orM4kRh8p4hkdjHvO7+EVqIdZdNYuO2tzOFWG1ZbTO5syQ2PubJR\naAfJKqzvAgMBAAECggEAAxqm7mjYKQ10Uhqn8JvaykPH85ScPQGWYQJotKqp2YsX\nxFDwwz06IDpHL8T642n69EP4ny546O7Z2oiuWCJ3/k4TCBsL2pi/Zsrd2eMv8tmA\naCV3z3brFm/klQWuICi15lHkWREsPZhexGRTKa13uHG86Q0OWcwnZi4OuOP0BMQY\nRz4dE1WsldK9uEtgT1XrjyjaFpNxMBHtSGSc24UA/HOJY7pujPCUtVJ9c5dUelJu\nfB0XdOPoTtSX3l13mUqWvX/m4r1Vug2Eft90QFi7TpByBHIgo92NtJfDuoVoNm+A\nuMi7AvfKDjWk3VSKYS+VvhVetkBPSV86ecz2amhaJQKBgQD9OOvxtgaMbHFSBmAE\nzrq7lkgjRb4SXQGO6E3aRZGjP3dTogHR6LkNS4s93+T5T1UaRe3xwJdNlmvxNNsh\nHtqzJQmrB6Mw1IwnlMg2QnXcdH12KhMdlDZMCfBxXL43f+2kcsw5NrGHVE5rSEcc\nL2N76gYxUxdNoEfbCows7n11IwKBgQDH92ygwWdBpKZm8wts1RCp9xEvqP0QVlCz\ncCyOqVHJ4fX4O7uKvOH/LhIxexp5JvXQ2SzgohKgiutO4pjjNMtNWRH/kpRFn0co\nVKYxLpIV9LZUL72cXT5n2oQ7rDY9bgHG3eeNMS1Cb0WHQbQjjgXnOB/V9fiN3CaV\nrsrgHRFjxQKBgAa/B3ovEUmYcgRvawt1vn/U5yMZbpDqrWnzQm+4PsMMo880l7vR\n6WwzQQhq+Jyzwl6q0kYIjX9hrIqGj/f37HetWu6Vi4F3iCxdyF+5sY4oBFerk0rM\ncg3gjelXQTIVVG13KX20uVITqussx8g2cv4QJA4YWpyU0pVBWK6xw+HlAoGBALQY\nEq11ghmMwJFXs6KBAlERQ1k5STG9i1EQZhDWTeMUrwKySWXaV3ALfjcyN9WFUT6X\nWeO2FDCi7OpPCoMWuUMgRSV4TjGmEeAw3LzOxKMhklSf6pU5JUtDcnSL1Q3eVZtV\nn4V6FNkQff4jHqom7wofcgyxSvn4nIeStQTDKTZBAoGAZ6WXgoIrkyVEK5PS9G0Q\nJ5OjwB4fDzZP5rAnx+zwB8WNavW/M2NAFpPnOJd9nNBqNhysw6EWT8bTijnOUBrd\nHXv/j5YrdPQFSE4wiA5JzYcpJap5oBF06SsSjdTOKx7UyjKFw9PpGutC7M10RFFA\nwrxfumLUlW2hy4hPRXQSFYo=\n-----END PRIVATE KEY-----\n",
  "client_email": "nff-597@tenacious-camp-180815.iam.gserviceaccount.com",
  "client_id": "117009785646309291568",
  "auth_uri": "https://accounts.google.com/o/oauth2/auth",
  "token_uri": "https://accounts.google.com/o/oauth2/token",
  "auth_provider_x509_cert_url": "https://www.googleapis.com/oauth2/v1/certs",
  "client_x509_cert_url": "https://www.googleapis.com/robot/v1/metadata/x509/nff-597%40tenacious-camp-180815.iam.gserviceaccount.com"
}
